{
  "info": {
    "author": "",
    "author_email": "Stefan Hagen <stefan@hagen.link>",
    "bugtrack_url": null,
    "classifiers": [
      "Development Status :: 3 - Alpha",
      "Intended Audience :: Developers",
      "License :: OSI Approved :: MIT License",
      "Programming Language :: Python :: 3.10",
      "Programming Language :: Python :: 3.11",
      "Programming Language :: Python :: 3.12",
      "Programming Language :: Python :: 3.9"
    ],
    "description": "# Taksonomia\n\nTaxonomy (Finnish: taksonomia) of a folder tree, guided by conventions.\n\n[License: MIT](https://git.sr.ht/~sthagen/taksonomia/tree/default/item/LICENSE)\n\nThird party dependencies are documented in the folder [third-party](docs/third-party/README.md).\n\n[![version](https://img.shields.io/pypi/v/taksonomia.svg?style=flat)](https://pypi.python.org/pypi/taksonomia/)\n[![downloads](https://pepy.tech/badge/taksonomia/month)](https://pepy.tech/project/taksonomia)\n[![wheel](https://img.shields.io/pypi/wheel/taksonomia.svg?style=flat)](https://pypi.python.org/pypi/taksonomia/)\n[![supported-versions](https://img.shields.io/pypi/pyversions/taksonomia.svg?style=flat)](https://pypi.python.org/pypi/taksonomia/)\n[![supported-implementations](https://img.shields.io/pypi/implementation/taksonomia.svg?style=flat)](https://pypi.python.org/pypi/taksonomia/)\n\n## Documentation\n\nUser and developer [documentation of taksonomia](https://codes.dilettant.life/docs/taksonomia/).\n\n## Bug Tracker\n\nAny feature requests or bug reports shall go to the [todos of taksonomia](https://todo.sr.ht/~sthagen/taksonomia).\n\n## Primary Source repository\n\nThe main source of `taksonomia` is on a mountain in central Switzerland.\nWe use distributed version control (git).\nThere is no central hub.\nEvery clone can become a new source for the benefit of all.\nThe preferred public clones of `taksonomia` are:\n\n* [on codeberg](https://codeberg.org/sthagen/taksonomia) - a democratic community-driven, non-profit software development platform operated by Codeberg e.V.\n* [at sourcehut](https://git.sr.ht/~sthagen/taksonomia) - a collection of tools useful for software development.\n\n## Contributions\n\nPlease do not submit \"pull requests\" (I found no way to disable that \"feature\" on GitHub).\nIf you like to share small changes under the repositories license please kindly do so by sending a patchset.\nYou can either send such a patchset per email using [git send-email](https://git-send-email.io) or \nif you are a sourcehut user by selecting \"Prepare a patchset\" on the summary page of your fork at [sourcehut](https://git.sr.ht/).\n\n## Status\n\nExperimental.\n\n**Note**: The default branch is `default`.\n",
    "description_content_type": "text/markdown",
    "docs_url": null,
    "download_url": "",
    "downloads": {
      "last_day": -1,
      "last_month": -1,
      "last_week": -1
    },
    "dynamic": null,
    "home_page": "",
    "keywords": "developer-tools,fingerprints,validation,verification,sbom,taxonomy",
    "license": "",
    "license_expression": null,
    "license_files": null,
    "maintainer": "",
    "maintainer_email": "Stefan Hagen <stefan@hagen.link>",
    "name": "taksonomia",
    "package_url": "https://pypi.org/project/taksonomia/",
    "platform": null,
    "project_url": "https://pypi.org/project/taksonomia/",
    "project_urls": {
      "Bug-Tracker": "https://todo.sr.ht/~sthagen/taksonomia",
      "Documentation": "https://codes.dilettant.life/docs/taksonomia",
      "Homepage": "https://git.sr.ht/~sthagen/taksonomia",
      "Source-Code": "https://git.sr.ht/~sthagen/taksonomia",
      "Test-Coverage": "https://codes.dilettant.life/coverage/taksonomia"
    },
    "provides_extra": null,
    "release_url": "https://pypi.org/project/taksonomia/2023.6.18/",
    "requires_dist": [
      "PyYAML (>=6.0)",
      "lxml (>=4.9.2)",
      "msgspec (>=0.16.0)",
      "psutil (>=5.9.5)",
      "py-cpuinfo (>=9.0.0)",
      "black ; extra == 'dev'",
      "coverage ; extra == 'dev'",
      "hypothesis ; extra == 'dev'",
      "mypy ; extra == 'dev'",
      "pytest ; extra == 'dev'",
      "pytest-cov ; extra == 'dev'",
      "pytest-flake8 ; extra == 'dev'",
      "types-jmespath ; extra == 'dev'",
      "ruff ; extra == 'dev'"
    ],
    "requires_python": ">=3.9",
    "summary": "Taxonomy (Finnish: taksonomia) of a folder tree, guided by conventions.",
    "version": "2023.6.18",
    "yanked": false,
    "yanked_reason": null
  },
  "last_serial": 18549770,
  "releases": {
    "2022.12.7": [
      {
        "comment_text": "",
        "digests": {
          "blake2b_256": "eeb0418d7473e503b36402afd92329d0a3299f904c181bd6d6780b2445b09ec8",
          "md5": "84a708e0880cd89a8a27835b53b6ac55",
          "sha256": "7dd4e84f3cd2cc9e1b5586235207f755affd51da51dc418a7c0edf89afdc2350"
        },
        "downloads": -1,
        "filename": "taksonomia-2022.12.7-py2.py3-none-any.whl",
        "has_sig": false,
        "md5_digest": "84a708e0880cd89a8a27835b53b6ac55",
        "packagetype": "bdist_wheel",
        "python_version": "py2.py3",
        "requires_python": ">=3.9",
        "size": 14146,
        "upload_time": "2022-12-07T17:57:33",
        "upload_time_iso_8601": "2022-12-07T17:57:33.482803Z",
        "url": "https://files.pythonhosted.org/packages/ee/b0/418d7473e503b36402afd92329d0a3299f904c181bd6d6780b2445b09ec8/taksonomia-2022.12.7-py2.py3-none-any.whl",
        "yanked": false,
        "yanked_reason": null
      },
      {
        "comment_text": "",
        "digests": {
          "blake2b_256": "291fa1dcceda33fb09b4a0239d5c7f5f3aeecf8ade2baca4b400de855f62d72e",
          "md5": "0cc32b991d97063a4af9e8f7c0694665",
          "sha256": "f0acd91ca4fa8f5771fd4646831179d3b13718fd5ca35e9dece1f7cc137619fc"
        },
        "downloads": -1,
        "filename": "taksonomia-2022.12.7.tar.gz",
        "has_sig": false,
        "md5_digest": "0cc32b991d97063a4af9e8f7c0694665",
        "packagetype": "sdist",
        "python_version": "source",
        "requires_python": ">=3.9",
        "size": 38079,
        "upload_time": "2022-12-07T17:57:35",
        "upload_time_iso_8601": "2022-12-07T17:57:35.411074Z",
        "url": "https://files.pythonhosted.org/packages/29/1f/a1dcceda33fb09b4a0239d5c7f5f3aeecf8ade2baca4b400de855f62d72e/taksonomia-2022.12.7.tar.gz",
        "yanked": false,
        "yanked_reason": null
      }
    ],
    "2022.9.10": [
      {
        "comment_text": "",
        "digests": {
          "blake2b_256": "08f2f2b4705fdd3e8a7290ef72318ff3ddd6fd4c5ffb593d0bf9fabba2851e91",
          "md5": "8bab178983918c548d95f0081df0d86c",
          "sha256": "2b5c0ac17509d0e4dd374dfbabeef8a312e83b4a81bdbe630506cd72e480d14b"
        },
        "downloads": -1,
        "filename": "taksonomia-2022.9.10-py2.py3-none-any.whl",
        "has_sig": false,
        "md5_digest": "8bab178983918c548d95f0081df0d86c",
        "packagetype": "bdist_wheel",
        "python_version": "py2.py3",
        "requires_python": ">=3.8",
        "size": 8029,
        "upload_time": "2022-09-10T12:32:13",
        "upload_time_iso_8601": "2022-09-10T12:32:13.602375Z",
        "url": "https://files.pythonhosted.org/packages/08/f2/f2b4705fdd3e8a7290ef72318ff3ddd6fd4c5ffb593d0bf9fabba2851e91/taksonomia-2022.9.10-py2.py3-none-any.whl",
        "yanked": false,
        "yanked_reason": null
      },
      {
        "comment_text": "",
        "digests": {
          "blake2b_256": "e4e584ffe99761240cce70235069d6e36f9ba8b6f7e41eb4ada3aaf899ae075d",
          "md5": "2b45053a19237056fbb8ed268aa8b036",
          "sha256": "ab0c9bdf513c71b703c59e2e895d81bb31213aedc7d06c67f18c057e07d15149"
        },
        "downloads": -1,
        "filename": "taksonomia-2022.9.10.tar.gz",
        "has_sig": false,
        "md5_digest": "2b45053a19237056fbb8ed268aa8b036",
        "packagetype": "sdist",
        "python_version": "source",
        "requires_python": ">=3.8",
        "size": 23649,
        "upload_time": "2022-09-10T12:32:15",
        "upload_time_iso_8601": "2022-09-10T12:32:15.406312Z",
        "url": "https://files.pythonhosted.org/packages/e4/e5/84ffe99761240cce70235069d6e36f9ba8b6f7e41eb4ada3aaf899ae075d/taksonomia-2022.9.10.tar.gz",
        "yanked": false,
        "yanked_reason": null
      }
    ],
    "2022.9.11": [
      {
        "comment_text": "",
        "digests": {
          "blake2b_256": "19f121a77c9cb39c073444c3cca6b6e7f0afcb35e56a695b11358c050ad06fdf",
          "md5": "b9a80768810e5e9c4c7663925f3bf5f4",
          "sha256": "f75da814f45e523b5c81265171f6073de1229e012243d5aaba2176d2523293b2"
        },
        "downloads": -1,
        "filename": "taksonomia-2022.9.11-py2.py3-none-any.whl",
        "has_sig": false,
        "md5_digest": "b9a80768810e5e9c4c7663925f3bf5f4",
        "packagetype": "bdist_wheel",
        "python_version": "py2.py3",
        "requires_python": ">=3.8",
        "size": 8442,
        "upload_time": "2022-09-10T15:39:17",
        "upload_time_iso_8601": "2022-09-10T15:39:17.046970Z",
        "url": "https://files.pythonhosted.org/packages/19/f1/21a77c9cb39c073444c3cca6b6e7f0afcb35e56a695b11358c050ad06fdf/taksonomia-2022.9.11-py2.py3-none-any.whl",
        "yanked": false,
        "yanked_reason": null
      },
      {
        "comment_text": "",
        "digests": {
          "blake2b_256": "52535ddbd467a75a257d4b317e598cfb36dc148c4fce2f5ecc3ee8d349644adf",
          "md5": "9fa85bc74818c9ef094d8bf2a6f01810",
          "sha256": "a80f76bfe9d3c5b4756850200c47840847092859de610624ee4924b2419949f1"
        },
        "downloads": -1,
        "filename": "taksonomia-2022.9.11.tar.gz",
        "has_sig": false,
        "md5_digest": "9fa85bc74818c9ef094d8bf2a6f01810",
        "packagetype": "sdist",
        "python_version": "source",
        "requires_python": ">=3.8",
        "size": 24550,
        "upload_time": "2022-09-10T15:39:18",
        "upload_time_iso_8601": "2022-09-10T15:39:18.604554Z",
        "url": "https://files.pythonhosted.org/packages/52/53/5ddbd467a75a257d4b317e598cfb36dc148c4fce2f5ecc3ee8d349644adf/taksonomia-2022.9.11.tar.gz",
        "yanked": false,
        "yanked_reason": null
      }
    ],
    "2022.9.12": [
      {
        "comment_text": "",
        "digests": {
          "blake2b_256": "8ac3ec45bf1c098e8e7db68341eb5c75b767fabcab762fca1605e888b5809e80",
          "md5": "0851be27ec0fe30ccc969a6d9c631d01",
          "sha256": "eb16221598336bbe6e2ffe297b7c447ade3123c8fbc929a3ee85906292a8e0b6"
        },
        "downloads": -1,
        "filename": "taksonomia-2022.9.12-py2.py3-none-any.whl",
        "has_sig": false,
        "md5_digest": "0851be27ec0fe30ccc969a6d9c631d01",
        "packagetype": "bdist_wheel",
        "python_version": "py2.py3",
        "requires_python": ">=3.8",
        "size": 9011,
        "upload_time": "2022-09-11T20:00:06",
        "upload_time_iso_8601": "2022-09-11T20:00:06.091279Z",
        "url": "https://files.pythonhosted.org/packages/8a/c3/ec45bf1c098e8e7db68341eb5c75b767fabcab762fca1605e888b5809e80/taksonomia-2022.9.12-py2.py3-none-any.whl",
        "yanked": false,
        "yanked_reason": null
      },
      {
        "comment_text": "",
        "digests": {
          "blake2b_256": "99d3020ea3564b32b714cb2b908c8a8b30716a1120ff9287a2cab40cc4217112",
          "md5": "3353f492fd41f23d5ac1e8eed6f98d04",
          "sha256": "b53ac1ecda8faab0261b71d7af5c2886f2291ae69bba99b5aa64a62a2890f9a5"
        },
        "downloads": -1,
        "filename": "taksonomia-2022.9.12.tar.gz",
        "has_sig": false,
        "md5_digest": "3353f492fd41f23d5ac1e8eed6f98d04",
        "packagetype": "sdist",
        "python_version": "source",
        "requires_python": ">=3.8",
        "size": 26672,
        "upload_time": "2022-09-11T20:00:08",
        "upload_time_iso_8601": "2022-09-11T20:00:08.071083Z",
        "url": "https://files.pythonhosted.org/packages/99/d3/020ea3564b32b714cb2b908c8a8b30716a1120ff9287a2cab40cc4217112/taksonomia-2022.9.12.tar.gz",
        "yanked": false,
        "yanked_reason": null
      }
    ],
    "2022.9.13": [
      {
        "comment_text": "",
        "digests": {
          "blake2b_256": "40930cebb66211de45f40894551bb9b714b994df2f0fee092ccfa53517544be8",
          "md5": "1f92e4bdd6b2b0747e92fb43880c00f3",
          "sha256": "f4594532b37540638bb21c4b8601e3ae29cc47bb0af10ded39ca070bd457e4f2"
        },
        "downloads": -1,
        "filename": "taksonomia-2022.9.13-py2.py3-none-any.whl",
        "has_sig": false,
        "md5_digest": "1f92e4bdd6b2b0747e92fb43880c00f3",
        "packagetype": "bdist_wheel",
        "python_version": "py2.py3",
        "requires_python": ">=3.8",
        "size": 11376,
        "upload_time": "2022-09-12T21:26:18",
        "upload_time_iso_8601": "2022-09-12T21:26:18.016110Z",
        "url": "https://files.pythonhosted.org/packages/40/93/0cebb66211de45f40894551bb9b714b994df2f0fee092ccfa53517544be8/taksonomia-2022.9.13-py2.py3-none-any.whl",
        "yanked": false,
        "yanked_reason": null
      },
      {
        "comment_text": "",
        "digests": {
          "blake2b_256": "4d3bb8d6476110ee58a29d299a72ac59589ae2c2526dacc5e311c6f222ede8ca",
          "md5": "b12df927fff5646d8493ed36f2957423",
          "sha256": "748c9d04e2b170ca58cef2631cc4870be46ed6e28f7b15fb91db2e121b557d3d"
        },
        "downloads": -1,
        "filename": "taksonomia-2022.9.13.tar.gz",
        "has_sig": false,
        "md5_digest": "b12df927fff5646d8493ed36f2957423",
        "packagetype": "sdist",
        "python_version": "source",
        "requires_python": ">=3.8",
        "size": 29722,
        "upload_time": "2022-09-12T21:26:19",
        "upload_time_iso_8601": "2022-09-12T21:26:19.977414Z",
        "url": "https://files.pythonhosted.org/packages/4d/3b/b8d6476110ee58a29d299a72ac59589ae2c2526dacc5e311c6f222ede8ca/taksonomia-2022.9.13.tar.gz",
        "yanked": false,
        "yanked_reason": null
      }
    ],
    "2022.9.14": [
      {
        "comment_text": "",
        "digests": {
          "blake2b_256": "0b5ccaf586df0616e2130b999e0f5a2d6159d57bf1713ced2cc6ea9948688c4e",
          "md5": "af157baf225d8b87370639c16fdafc6d",
          "sha256": "c61a9d8b9cacb4134e6d3d382e5593686fbc38e4386204c3096e959d42535312"
        },
        "downloads": -1,
        "filename": "taksonomia-2022.9.14-py2.py3-none-any.whl",
        "has_sig": false,
        "md5_digest": "af157baf225d8b87370639c16fdafc6d",
        "packagetype": "bdist_wheel",
        "python_version": "py2.py3",
        "requires_python": ">=3.8",
        "size": 13812,
        "upload_time": "2022-09-13T22:08:43",
        "upload_time_iso_8601": "2022-09-13T22:08:43.867247Z",
        "url": "https://files.pythonhosted.org/packages/0b/5c/caf586df0616e2130b999e0f5a2d6159d57bf1713ced2cc6ea9948688c4e/taksonomia-2022.9.14-py2.py3-none-any.whl",
        "yanked": false,
        "yanked_reason": null
      },
      {
        "comment_text": "",
        "digests": {
          "blake2b_256": "70fc3ebb35428c119954fc2a001a6a5760cc620277a84280c8cabc081dc1e868",
          "md5": "25832dc463d5a19817d344467f638f30",
          "sha256": "f71dd91c448c7531ba7ab0cbad1dbc3c6b80b2b836acf6896676cfa7d64a329d"
        },
        "downloads": -1,
        "filename": "taksonomia-2022.9.14.tar.gz",
        "has_sig": false,
        "md5_digest": "25832dc463d5a19817d344467f638f30",
        "packagetype": "sdist",
        "python_version": "source",
        "requires_python": ">=3.8",
        "size": 32238,
        "upload_time": "2022-09-13T22:08:45",
        "upload_time_iso_8601": "2022-09-13T22:08:45.812964Z",
        "url": "https://files.pythonhosted.org/packages/70/fc/3ebb35428c119954fc2a001a6a5760cc620277a84280c8cabc081dc1e868/taksonomia-2022.9.14.tar.gz",
        "yanked": false,
        "yanked_reason": null
      }
    ],
    "2022.9.18": [
      {
        "comment_text": "",
        "digests": {
          "blake2b_256": "e7f3936942b446a2ed0c1ca3d7e108c0f734dbcb3783f43a4e2fdbd4eec3adb3",
          "md5": "e01a738d4fe9f8b8a1d56b61a2bc6069",
          "sha256": "0c557b5e10dc953d1a4fea551edd59a306543942bed72c9df2d67bf733473067"
        },
        "downloads": -1,
        "filename": "taksonomia-2022.9.18-py2.py3-none-any.whl",
        "has_sig": false,
        "md5_digest": "e01a738d4fe9f8b8a1d56b61a2bc6069",
        "packagetype": "bdist_wheel",
        "python_version": "py2.py3",
        "requires_python": ">=3.8",
        "size": 13975,
        "upload_time": "2022-09-18T20:53:49",
        "upload_time_iso_8601": "2022-09-18T20:53:49.980216Z",
        "url": "https://files.pythonhosted.org/packages/e7/f3/936942b446a2ed0c1ca3d7e108c0f734dbcb3783f43a4e2fdbd4eec3adb3/taksonomia-2022.9.18-py2.py3-none-any.whl",
        "yanked": false,
        "yanked_reason": null
      },
      {
        "comment_text": "",
        "digests": {
          "blake2b_256": "5e164dc25be41b3a2b77836798e7a7c0fff642f39c5e26d0efcc678fe8aeee0d",
          "md5": "dc81067a53f433b4794090dedf321ecc",
          "sha256": "84585e93d6cc46620c795f5211c68be4b47f9df3bf7bd68439d8803eb6c554d3"
        },
        "downloads": -1,
        "filename": "taksonomia-2022.9.18.tar.gz",
        "has_sig": false,
        "md5_digest": "dc81067a53f433b4794090dedf321ecc",
        "packagetype": "sdist",
        "python_version": "source",
        "requires_python": ">=3.8",
        "size": 33435,
        "upload_time": "2022-09-18T20:53:52",
        "upload_time_iso_8601": "2022-09-18T20:53:52.661291Z",
        "url": "https://files.pythonhosted.org/packages/5e/16/4dc25be41b3a2b77836798e7a7c0fff642f39c5e26d0efcc678fe8aeee0d/taksonomia-2022.9.18.tar.gz",
        "yanked": false,
        "yanked_reason": null
      }
    ],
    "2022.9.21": [
      {
        "comment_text": "",
        "digests": {
          "blake2b_256": "0b1eade9a9f9a6fd4e68ab9c517df48a9fa28d482d3f4f243496e3ae0f5b9cc8",
          "md5": "ec516af8a9bbbe73270c97f1511948ba",
          "sha256": "d12c946c21a0aafd5f7e004aa5954bd4d3f714ad07de8296a8c8df4f4f667cae"
        },
        "downloads": -1,
        "filename": "taksonomia-2022.9.21-py2.py3-none-any.whl",
        "has_sig": false,
        "md5_digest": "ec516af8a9bbbe73270c97f1511948ba",
        "packagetype": "bdist_wheel",
        "python_version": "py2.py3",
        "requires_python": ">=3.8",
        "size": 14134,
        "upload_time": "2022-09-21T15:57:15",
        "upload_time_iso_8601": "2022-09-21T15:57:15.869386Z",
        "url": "https://files.pythonhosted.org/packages/0b/1e/ade9a9f9a6fd4e68ab9c517df48a9fa28d482d3f4f243496e3ae0f5b9cc8/taksonomia-2022.9.21-py2.py3-none-any.whl",
        "yanked": false,
        "yanked_reason": null
      },
      {
        "comment_text": "",
        "digests": {
          "blake2b_256": "be372e299d32be0abfa045bff081c1a71ad715ae6e81c8794543c596ce44b61a",
          "md5": "dc0d2298b38d352de522705a9fabfa5e",
          "sha256": "8e5ddef6ba0588eff9648c6eedf3c0160a4879ae8f4a90116d17a95a49ffb86f"
        },
        "downloads": -1,
        "filename": "taksonomia-2022.9.21.tar.gz",
        "has_sig": false,
        "md5_digest": "dc0d2298b38d352de522705a9fabfa5e",
        "packagetype": "sdist",
        "python_version": "source",
        "requires_python": ">=3.8",
        "size": 33658,
        "upload_time": "2022-09-21T15:57:18",
        "upload_time_iso_8601": "2022-09-21T15:57:18.154354Z",
        "url": "https://files.pythonhosted.org/packages/be/37/2e299d32be0abfa045bff081c1a71ad715ae6e81c8794543c596ce44b61a/taksonomia-2022.9.21.tar.gz",
        "yanked": false,
        "yanked_reason": null
      }
    ],
    "2022.9.8": [
      {
        "comment_text": "",
        "digests": {
          "blake2b_256": "1a74fbd538e7f33d974e085251021778276c70fe46a7c4d7fe8fdee8f72eb37d",
          "md5": "bc964a4d52bdb935dc9c54ae8014179a",
          "sha256": "5669cefade474adfa680d1964459f8bc4d70e6830a196d12959eb78663bbf729"
        },
        "downloads": -1,
        "filename": "taksonomia-2022.9.8-py2.py3-none-any.whl",
        "has_sig": false,
        "md5_digest": "bc964a4d52bdb935dc9c54ae8014179a",
        "packagetype": "bdist_wheel",
        "python_version": "py2.py3",
        "requires_python": ">=3.8",
        "size": 4927,
        "upload_time": "2022-09-08T15:14:37",
        "upload_time_iso_8601": "2022-09-08T15:14:37.176630Z",
        "url": "https://files.pythonhosted.org/packages/1a/74/fbd538e7f33d974e085251021778276c70fe46a7c4d7fe8fdee8f72eb37d/taksonomia-2022.9.8-py2.py3-none-any.whl",
        "yanked": false,
        "yanked_reason": null
      },
      {
        "comment_text": "",
        "digests": {
          "blake2b_256": "35bfe8e308ff93c5fb8bfaa2c2d443d6cd434c2ce1d2f44dc8bb152433c81785",
          "md5": "0d794614bca018476212992bb362a430",
          "sha256": "edf9a974ba416ea326b48aff85041e200bcdaf96f6cefaad3bee2613e9edc47c"
        },
        "downloads": -1,
        "filename": "taksonomia-2022.9.8.tar.gz",
        "has_sig": false,
        "md5_digest": "0d794614bca018476212992bb362a430",
        "packagetype": "sdist",
        "python_version": "source",
        "requires_python": ">=3.8",
        "size": 16550,
        "upload_time": "2022-09-08T15:14:39",
        "upload_time_iso_8601": "2022-09-08T15:14:39.419157Z",
        "url": "https://files.pythonhosted.org/packages/35/bf/e8e308ff93c5fb8bfaa2c2d443d6cd434c2ce1d2f44dc8bb152433c81785/taksonomia-2022.9.8.tar.gz",
        "yanked": false,
        "yanked_reason": null
      }
    ],
    "2022.9.9": [
      {
        "comment_text": "",
        "digests": {
          "blake2b_256": "dff2e155f5304a6bb6b7fac42cc44f45576b89e05b258d578ba7fb850fe2f268",
          "md5": "d3a9413bda882c518b56508beac1f664",
          "sha256": "cdd390c552afc5b2d254a3797372318672d56c14027721702a784372577e78da"
        },
        "downloads": -1,
        "filename": "taksonomia-2022.9.9-py2.py3-none-any.whl",
        "has_sig": false,
        "md5_digest": "d3a9413bda882c518b56508beac1f664",
        "packagetype": "bdist_wheel",
        "python_version": "py2.py3",
        "requires_python": ">=3.8",
        "size": 6890,
        "upload_time": "2022-09-09T20:40:06",
        "upload_time_iso_8601": "2022-09-09T20:40:06.080559Z",
        "url": "https://files.pythonhosted.org/packages/df/f2/e155f5304a6bb6b7fac42cc44f45576b89e05b258d578ba7fb850fe2f268/taksonomia-2022.9.9-py2.py3-none-any.whl",
        "yanked": false,
        "yanked_reason": null
      },
      {
        "comment_text": "",
        "digests": {
          "blake2b_256": "14fe426a7a2c3b99e2d1a313f8d0443338accc49c8cb986290008228547ba44f",
          "md5": "7ac3214748b85c41f3cdede75b49d8f5",
          "sha256": "54de739cf6bdf50ecd822ea850fe74304ae2c0ab9563d7519ae6bc75e5a1bdd6"
        },
        "downloads": -1,
        "filename": "taksonomia-2022.9.9.tar.gz",
        "has_sig": false,
        "md5_digest": "7ac3214748b85c41f3cdede75b49d8f5",
        "packagetype": "sdist",
        "python_version": "source",
        "requires_python": ">=3.8",
        "size": 20355,
        "upload_time": "2022-09-09T20:40:07",
        "upload_time_iso_8601": "2022-09-09T20:40:07.863980Z",
        "url": "https://files.pythonhosted.org/packages/14/fe/426a7a2c3b99e2d1a313f8d0443338accc49c8cb986290008228547ba44f/taksonomia-2022.9.9.tar.gz",
        "yanked": false,
        "yanked_reason": null
      }
    ],
    "2023.1.10": [
      {
        "comment_text": "",
        "digests": {
          "blake2b_256": "ba28d7d2115555e46c637ae918ef70ebe8ab0c51b1049c62ad4bc2c8fd2cb3de",
          "md5": "22d448d95e62de66d43225609ed9c0b2",
          "sha256": "b36f1a945a2537d81bfa2c7e4a0360e8bf1a5c3499e5d818e1a60f62849658d6"
        },
        "downloads": -1,
        "filename": "taksonomia-2023.1.10-py3-none-any.whl",
        "has_sig": false,
        "md5_digest": "22d448d95e62de66d43225609ed9c0b2",
        "packagetype": "bdist_wheel",
        "python_version": "py3",
        "requires_python": ">=3.9",
        "size": 14133,
        "upload_time": "2023-01-10T21:51:12",
        "upload_time_iso_8601": "2023-01-10T21:51:12.130811Z",
        "url": "https://files.pythonhosted.org/packages/ba/28/d7d2115555e46c637ae918ef70ebe8ab0c51b1049c62ad4bc2c8fd2cb3de/taksonomia-2023.1.10-py3-none-any.whl",
        "yanked": false,
        "yanked_reason": null
      },
      {
        "comment_text": "",
        "digests": {
          "blake2b_256": "9bc92323388b23c93a618692ed89f1873b9cdc10b145b62a85be0f0df78e8947",
          "md5": "7f72816ebe8a0149ae63e03e3806fd65",
          "sha256": "4739b6a7a0fec3453acc0195e4daf05f75492040afcc192a9a064dd0a7409874"
        },
        "downloads": -1,
        "filename": "taksonomia-2023.1.10.tar.gz",
        "has_sig": false,
        "md5_digest": "7f72816ebe8a0149ae63e03e3806fd65",
        "packagetype": "sdist",
        "python_version": "source",
        "requires_python": ">=3.9",
        "size": 16124,
        "upload_time": "2023-01-10T21:51:13",
        "upload_time_iso_8601": "2023-01-10T21:51:13.765357Z",
        "url": "https://files.pythonhosted.org/packages/9b/c9/2323388b23c93a618692ed89f1873b9cdc10b145b62a85be0f0df78e8947/taksonomia-2023.1.10.tar.gz",
        "yanked": false,
        "yanked_reason": null
      }
    ],
    "2023.1.24": [
      {
        "comment_text": "",
        "digests": {
          "blake2b_256": "dd52902167499333318b87e892d62de13f1f91551d06aee0cd9d0d0ae2797128",
          "md5": "1642e0e809619b57fe21dec2e77554a0",
          "sha256": "67e78edbc64e51b5b75ccb059afbfa1b78ea1bb624d993ff6ebe96cfaeee9cd9"
        },
        "downloads": -1,
        "filename": "taksonomia-2023.1.24-py3-none-any.whl",
        "has_sig": false,
        "md5_digest": "1642e0e809619b57fe21dec2e77554a0",
        "packagetype": "bdist_wheel",
        "python_version": "py3",
        "requires_python": ">=3.9",
        "size": 14257,
        "upload_time": "2023-01-24T22:13:25",
        "upload_time_iso_8601": "2023-01-24T22:13:25.714883Z",
        "url": "https://files.pythonhosted.org/packages/dd/52/902167499333318b87e892d62de13f1f91551d06aee0cd9d0d0ae2797128/taksonomia-2023.1.24-py3-none-any.whl",
        "yanked": false,
        "yanked_reason": null
      },
      {
        "comment_text": "",
        "digests": {
          "blake2b_256": "580af0a75cb35d56f74b21a7262636f92374d084eadc559d0bf7be6d6ff707dc",
          "md5": "498fd163033e7f07088793f8f1542556",
          "sha256": "ab9b82f96447e51285f73301c9c9bd7a10f65dbcb6a669ac12149f27cc2de2c5"
        },
        "downloads": -1,
        "filename": "taksonomia-2023.1.24.tar.gz",
        "has_sig": false,
        "md5_digest": "498fd163033e7f07088793f8f1542556",
        "packagetype": "sdist",
        "python_version": "source",
        "requires_python": ">=3.9",
        "size": 16256,
        "upload_time": "2023-01-24T22:13:27",
        "upload_time_iso_8601": "2023-01-24T22:13:27.760000Z",
        "url": "https://files.pythonhosted.org/packages/58/0a/f0a75cb35d56f74b21a7262636f92374d084eadc559d0bf7be6d6ff707dc/taksonomia-2023.1.24.tar.gz",
        "yanked": false,
        "yanked_reason": null
      }
    ],
    "2023.6.18": [
      {
        "comment_text": "",
        "digests": {
          "blake2b_256": "c13d753722161a2adeedce5e28f5586339803a03bf1734e650da9537e513d762",
          "md5": "eaa01eed860216c4dff13bac087fea32",
          "sha256": "77e2061fa6953bae251fbd776d604d9cb65902e20ea7aed96f9334c5f18a6a2b"
        },
        "downloads": -1,
        "filename": "taksonomia-2023.6.18-py3-none-any.whl",
        "has_sig": false,
        "md5_digest": "eaa01eed860216c4dff13bac087fea32",
        "packagetype": "bdist_wheel",
        "python_version": "py3",
        "requires_python": ">=3.9",
        "size": 14519,
        "upload_time": "2023-06-18T11:58:08",
        "upload_time_iso_8601": "2023-06-18T11:58:08.609530Z",
        "url": "https://files.pythonhosted.org/packages/c1/3d/753722161a2adeedce5e28f5586339803a03bf1734e650da9537e513d762/taksonomia-2023.6.18-py3-none-any.whl",
        "yanked": false,
        "yanked_reason": null
      },
      {
        "comment_text": "",
        "digests": {
          "blake2b_256": "67746737abff2fb06f3a2f935d89ed39caa91dd1ce8804b474bb0256420807b0",
          "md5": "4f8f37f16881dbb2541b521ecd1cf957",
          "sha256": "f7f13713ef6d4c9b6666f56a25e0d35458c3bad505510d5aa101da6f14999fef"
        },
        "downloads": -1,
        "filename": "taksonomia-2023.6.18.tar.gz",
        "has_sig": false,
        "md5_digest": "4f8f37f16881dbb2541b521ecd1cf957",
        "packagetype": "sdist",
        "python_version": "source",
        "requires_python": ">=3.9",
        "size": 16748,
        "upload_time": "2023-06-18T11:58:10",
        "upload_time_iso_8601": "2023-06-18T11:58:10.120172Z",
        "url": "https://files.pythonhosted.org/packages/67/74/6737abff2fb06f3a2f935d89ed39caa91dd1ce8804b474bb0256420807b0/taksonomia-2023.6.18.tar.gz",
        "yanked": false,
        "yanked_reason": null
      }
    ]
  },
  "urls": [
    {
      "comment_text": "",
      "digests": {
        "blake2b_256": "c13d753722161a2adeedce5e28f5586339803a03bf1734e650da9537e513d762",
        "md5": "eaa01eed860216c4dff13bac087fea32",
        "sha256": "77e2061fa6953bae251fbd776d604d9cb65902e20ea7aed96f9334c5f18a6a2b"
      },
      "downloads": -1,
      "filename": "taksonomia-2023.6.18-py3-none-any.whl",
      "has_sig": false,
      "md5_digest": "eaa01eed860216c4dff13bac087fea32",
      "packagetype": "bdist_wheel",
      "python_version": "py3",
      "requires_python": ">=3.9",
      "size": 14519,
      "upload_time": "2023-06-18T11:58:08",
      "upload_time_iso_8601": "2023-06-18T11:58:08.609530Z",
      "url": "https://files.pythonhosted.org/packages/c1/3d/753722161a2adeedce5e28f5586339803a03bf1734e650da9537e513d762/taksonomia-2023.6.18-py3-none-any.whl",
      "yanked": false,
      "yanked_reason": null
    },
    {
      "comment_text": "",
      "digests": {
        "blake2b_256": "67746737abff2fb06f3a2f935d89ed39caa91dd1ce8804b474bb0256420807b0",
        "md5": "4f8f37f16881dbb2541b521ecd1cf957",
        "sha256": "f7f13713ef6d4c9b6666f56a25e0d35458c3bad505510d5aa101da6f14999fef"
      },
      "downloads": -1,
      "filename": "taksonomia-2023.6.18.tar.gz",
      "has_sig": false,
      "md5_digest": "4f8f37f16881dbb2541b521ecd1cf957",
      "packagetype": "sdist",
      "python_version": "source",
      "requires_python": ">=3.9",
      "size": 16748,
      "upload_time": "2023-06-18T11:58:10",
      "upload_time_iso_8601": "2023-06-18T11:58:10.120172Z",
      "url": "https://files.pythonhosted.org/packages/67/74/6737abff2fb06f3a2f935d89ed39caa91dd1ce8804b474bb0256420807b0/taksonomia-2023.6.18.tar.gz",
      "yanked": false,
      "yanked_reason": null
    }
  ],
  "vulnerabilities": []
}